"Reporting Starts","Reporting Ends","Campaign Name","Campaign Delivery","Ad Set Budget","Ad Set Budget Type","Date Created",Impressions,"Clicks (All)","CTR (All)","CPM (Cost per 1,000 Impressions) (USD)","Amount Spent (USD)","Cost per Results","Result Indicator","Content Views","App Installs","Cost per install","Trials Started","Cost per Trial","Registrations Completed","Adds to Cart","Credit Spends","Result Rate","Achievements Unlocked","Purchase ROAS (Return on Ad Spend)","Campaign ID"
2020-11-15,2020-11-30,,0,0,0,0,771616,90332,11.70685937,17.05383248,13159.01,1.1932363075807,actions:offsite_conversion.fb_pixel_view_content,11028,7319,1.79792458,578,22.76645329,219,6,2,1.4292083108697,,0.087012624809921,0
2020-11-15,2020-11-30,11-23-2020_CBO_LC_Compatibility_Collage_1_1,inactive,1000,Daily,2020-11-23,73955,9418,12.73477114,11.76688527,870.22,0.36579234972678,actions:offsite_conversion.fb_pixel_view_content,2379,1115,0.78046637,47,18.51531915,3,1,,3.2168210398215,,0.48148743995771,23846203713660154
2020-11-15,2020-11-30,11-23-2020_CBO_LC_Compatibility_Collage_2_1,inactive,1000,Daily,2020-11-23,4945,585,11.83013145,13.11223458,64.84,0.42657894736842,actions:offsite_conversion.fb_pixel_view_content,152,62,1.04580645,2,32.42,,,,3.0738119312437,,,23846203776800154
2020-11-15,2020-11-30,"11-25-2020_CBO_collage_1_LAL most active 1%",inactive,1000,Daily,2020-11-25,5443,514,9.4433217,19.63806724,106.89,0.96297297297297,actions:offsite_conversion.fb_pixel_view_content,111,73,1.46424658,8,13.36125,,,,2.0393165533713,,0.84198708953129,23846223128260154
2020-11-15,2020-11-30,"11-25-2020_CBO_collage_2_LAL most active 1%",inactive,1000,Daily,2020-11-25,5355,547,10.21475257,20.60130719,110.32,0.97628318584071,actions:offsite_conversion.fb_pixel_view_content,113,77,1.43272727,2,55.16,1,,,2.1101774042951,,,23846223212580154
2020-11-15,2020-11-30,"11-25-2020_CBO_collage_5_LAL most active 1%",inactive,1000,Daily,2020-11-25,5536,554,10.00722543,19.89884393,110.16,0.87428571428571,actions:offsite_conversion.fb_pixel_view_content,126,74,1.48864865,6,18.36,,,,2.2760115606936,,,23846223212630154
2020-11-15,2020-11-30,"11-25-2020_CBO_collage_4_LAL most active 1%",inactive,1000,Daily,2020-11-25,5498,528,9.60349218,19.91451437,109.49,0.9863963963964,actions:offsite_conversion.fb_pixel_view_content,111,76,1.44065789,8,13.68625,1,,,2.0189159694434,,0.27399762535391,23846223212640154
2020-11-15,2020-11-30,"11-25-2020_CBO_collage_3_LAL most active 1%",inactive,1000,Daily,2020-11-25,5434,528,9.71659919,20.368053,110.68,1.0248148148148,actions:offsite_conversion.fb_pixel_view_content,108,61,1.81442623,5,22.136,,,,1.9874861980125,,,23846223212690154
2020-11-15,2020-11-30,"11-25-2020_CBO_collage_1_LAL_start_trial 1%",inactive,1000,Daily,2020-11-25,396,22,5.55555556,70.98484848,28.11,5.622,actions:offsite_conversion.fb_pixel_view_content,5,2,14.055,,,,,,1.2626262626263,,,23846223270200154
2020-11-15,2020-11-30,"11-25-2020_CBO_collage_5_LAL_start_trial 1%",inactive,1000,Daily,2020-11-25,1809,69,3.81426202,63.2172471,114.36,8.1685714285714,actions:offsite_conversion.fb_pixel_view_content,14,12,9.53,2,57.18,,,,0.7739082365948,,0.26232948583421,23846223346880154
2020-11-15,2020-11-30,"11-25-2020_CBO_collage_4_LAL_start_trial 1%",inactive,1000,Daily,2020-11-25,392,15,3.82653061,70.76530612,27.74,13.87,actions:offsite_conversion.fb_pixel_view_content,2,2,13.87,,,,,,0.51020408163265,,,23846223346900154
2020-11-15,2020-11-30,"11-25-2020_CBO_collage_3_LAL_start_trial 1%",inactive,1000,Daily,2020-11-25,1261,43,3.40999207,75.21015067,94.84,31.613333333333,actions:offsite_conversion.fb_pixel_view_content,3,1,94.84,,,,,,0.23790642347343,,,23846223346910154
2020-11-15,2020-11-30,"11-25-2020_CBO_collage_2_LAL_start_trial 1%",inactive,1000,Daily,2020-11-25,294,13,4.42176871,94.86394558,27.89,5.578,actions:offsite_conversion.fb_pixel_view_content,5,4,6.9725,1,27.89,,,,1.7006802721088,,,23846223346920154
2020-11-15,2020-11-30,11-26-2020_CBO_collage_1_US_F_25+,inactive,1000,Daily,2020-11-26,37293,5770,15.47207251,22.16903977,826.75,1.5540413533835,actions:offsite_conversion.fb_pixel_view_content,532,459,1.80119826,42,19.68452381,20,,,1.4265411739469,,,23846233323070154
2020-11-15,2020-11-30,"11-26-2020_CBO_collage_1_US_F_25+ - Copy",inactive,1000,Daily,2020-11-26,38700,5639,14.57105943,21.51136951,832.49,1.5387985212569,actions:offsite_conversion.fb_pixel_view_content,541,459,1.8137037,39,21.34589744,16,,,1.3979328165375,,0.17297505075136,23846233355860154
2020-11-15,2020-11-30,"11-26-2020_CBO_collage_1_US_F_25+ - Copy",inactive,1000,Daily,2020-11-26,39721,5882,14.80828781,21.41587573,850.66,1.5327207207207,actions:offsite_conversion.fb_pixel_view_content,555,464,1.83331897,48,17.72208333,22,,,1.3972457893809,,,23846233355870154
2020-11-15,2020-11-30,"11-26-2020_CBO_collage_1_US_F_25+ - Copy",inactive,1000,Daily,2020-11-26,39963,5825,14.57598278,21.5078948,859.52,1.6561078998073,actions:offsite_conversion.fb_pixel_view_content,519,431,1.99424594,43,19.98883721,20,1,,1.2987012987013,,0.034903201787044,23846233355920154
2020-11-15,2020-11-30,11-26-2020_CBO_collage_2_US_F_25+,inactive,1000,Daily,2020-11-26,43529,3125,7.17912196,10.48220726,456.28,0.86090566037736,actions:offsite_conversion.fb_pixel_view_content,530,248,1.83983871,19,24.01473684,12,,,1.2175790852076,,,23846233466440154
2020-11-15,2020-11-30,"11-26-2020_CBO_collage_2_US_F_25+ - Copy",inactive,1000,Daily,2020-11-26,39078,3052,7.81002098,10.19294744,398.32,0.96212560386473,actions:offsite_conversion.fb_pixel_view_content,414,237,1.68067511,27,14.75259259,10,1,1,1.0594196222939,,0.075316328580036,23846233473800154
2020-11-15,2020-11-30,"11-26-2020_CBO_collage_2_US_F_25+ - Copy",inactive,1000,Daily,2020-11-26,38031,2858,7.51492204,10.9126765,415.02,1.0048910411622,actions:offsite_conversion.fb_pixel_view_content,413,212,1.95764151,13,31.92461538,3,,1,1.0859561936315,,,23846233473810154
2020-11-15,2020-11-30,"11-26-2020_CBO_collage_2_US_F_25+ - Copy",inactive,1000,Daily,2020-11-26,44069,3432,7.78778733,10.41752706,459.09,1.0529587155963,actions:offsite_conversion.fb_pixel_view_content,436,204,2.25044118,18,25.505,12,,,0.98935759831174,,,23846233473840154
2020-11-15,2020-11-30,11-26-2020_CBO_collage_3_US_F_25+,inactive,1000,Daily,2020-11-26,43435,4682,10.77932543,18.44641418,801.22,1.7156745182013,actions:offsite_conversion.fb_pixel_view_content,467,393,2.03872774,22,36.41909091,18,,,1.075169793945,,,23846233539370154
2020-11-15,2020-11-30,"11-26-2020_CBO_collage_3_US_F_25+ - Copy",inactive,1000,Daily,2020-11-26,41617,4532,10.88978062,18.42516279,766.8,1.5336,actions:offsite_conversion.fb_pixel_view_content,500,401,1.91221945,38,20.17894737,17,1,,1.2014321070716,,0.14866979655712,23846233547350154
2020-11-15,2020-11-30,"11-26-2020_CBO_collage_3_US_F_25+ - Copy",inactive,1000,Daily,2020-11-26,38824,4965,12.78848135,20.74180919,805.28,1.6367479674797,actions:offsite_conversion.fb_pixel_view_content,492,341,2.36152493,25,32.2112,8,1,,1.2672573665774,,0.14156566660044,23846233547360154
2020-11-15,2020-11-30,"11-26-2020_CBO_collage_3_US_F_25+ - Copy",inactive,1000,Daily,2020-11-26,43119,5026,11.65611447,18.94686797,816.97,1.4459646017699,actions:offsite_conversion.fb_pixel_view_content,565,405,2.01720988,36,22.69361111,12,,,1.310327233934,,0.036721054628689,23846233547440154
2020-11-15,2020-11-30,11-26-2020_CBO_collage_4_US_F_25+,inactive,1000,Daily,2020-11-26,47366,6095,12.86787991,17.05506059,807.83,1.5156285178236,actions:offsite_conversion.fb_pixel_view_content,533,365,2.21323288,31,26.05903226,12,,,1.1252797365199,,0.037136526249335,23846233604400154
2020-11-15,2020-11-30,"11-26-2020_CBO_collage_4_US_F_25+ - Copy",inactive,1000,Daily,2020-11-26,42583,5777,13.5664467,18.50104502,787.83,1.7353083700441,actions:offsite_conversion.fb_pixel_view_content,454,386,2.04101036,34,23.17147059,12,1,,1.0661531597116,,0.10662198697689,23846233622840154
2020-11-15,2020-11-30,"11-26-2020_CBO_collage_4_US_F_25+ - Copy",inactive,1000,Daily,2020-11-26,41190,5503,13.36003884,17.83709638,734.71,1.4577579365079,actions:offsite_conversion.fb_pixel_view_content,504,400,1.836775,37,19.85702703,12,,,1.2235979606701,,,23846233622860154
2020-11-15,2020-11-30,"11-26-2020_CBO_collage_4_US_F_25+ - Copy",inactive,1000,Daily,2020-11-26,42780,5333,12.46610566,17.87517532,764.7,1.7222972972973,actions:offsite_conversion.fb_pixel_view_content,444,355,2.15408451,25,30.588,8,,,1.0378681626928,,,23846233622870154
